[
  {
    "rol": "admin",
    "module": [
      {
        "url": "/main/api",
        "iconWeb": "",
        "mobile": "",
        "android": "",
        "ios": "",
        "ionic": "",
        "name": "api",
        "lang_property": "api",
        "acl": "api",
        "visible": true,
        "value": [
          "read",
          "create",
          "edit",
          "update",
          "delete"
        ]
      },
      {
        "url": "/main/term",
        "iconWeb": "",
        "mobile": "",
        "android": "",
        "ios": "",
        "ionic": "",
        "name": "term",
        "lang_property": "term",
        "acl": "term",
        "visible": true,
        "value": [
          "read",
          "create",
          "edit",
          "update",
          "delete"
        ]
      },
      {
        "url": "/main/users",
        "iconWeb": "",
        "mobile": "",
        "android": "",
        "ios": "",
        "ionic": "",
        "name": "users",
        "lang_property": "users",
        "acl": "users",
        "visible": true,
        "value": [
          "read",
          "create",
          "edit",
          "update",
          "delete"
        ]
      },
      {
        "url": "/main/Access",
        "iconWeb": "",
        "mobile": "",
        "android": "",
        "ios": "",
        "ionic": "",
        "name": "access",
        "lang_property": "access",
        "acl": "access",
        "visible": true,
        "value": [
          "read",
          "create",
          "edit",
          "update",
          "delete"
        ]
      },
      {
        "url": "/main/programs",
        "iconWeb": "",
        "mobile": "",
        "android": "",
        "ios": "",
        "ionic": "",
        "name": "programs",
        "lang_property": "programs",
        "acl": "programs",
        "visible": true,
        "value": [
          "read",
          "create",
          "edit",
          "update",
          "delete"
        ]
      },
      {
        "url": "/main/geographics",
        "iconWeb": "",
        "mobile": "",
        "android": "",
        "ios": "",
        "ionic": "",
        "name": "geographics",
        "lang_property": "geographics",
        "acl": "geographics",
        "visible": true,
        "value": [
          "read",
          "create",
          "edit",
          "update",
          "delete"
        ]
      },
      {
        "url": "/main/finances",
        "iconWeb": "",
        "mobile": "",
        "android": "",
        "ios": "",
        "ionic": "",
        "name": "finances",
        "lang_property": "finances",
        "acl": "finances",
        "visible": true,
        "value": [
          "read",
          "create",
          "edit",
          "update",
          "delete"
        ]
      },
      {
        "url": "/main/tradings",
        "iconWeb": "",
        "mobile": "",
        "android": "",
        "ios": "",
        "ionic": "",
        "name": "tradings",
        "lang_property": "tradings",
        "acl": "tradings",
        "visible": true,
        "value": [
          "read",
          "create",
          "edit",
          "update",
          "delete"
        ]
      },
      {
        "url": "/main/human-resources",
        "iconWeb": "",
        "mobile": "",
        "android": "",
        "ios": "",
        "ionic": "",
        "name": "Human Resources",
        "lang_property": "human_resources",
        "acl": "human_resources",
        "visible": true,
        "value": [
          "read",
          "create",
          "edit",
          "update",
          "delete"
        ]
      },
      {
        "url": "/main/trouble-ticket-system",
        "iconWeb": "",
        "mobile": "",
        "android": "",
        "ios": "",
        "ionic": "",
        "name": "Trouble Ticket System",
        "lang_property": "trouble_ticket_system",
        "acl": "trouble_ticket_system",
        "visible": true,
        "value": [
          "read",
          "create",
          "edit",
          "update",
          "delete"
        ]
      },
      {
        "url": "/main/e-commerce",
        "iconWeb": "",
        "mobile": "",
        "android": "",
        "ios": "",
        "ionic": "",
        "name": "E-Commerce",
        "lang_property": "e_commerce",
        "acl": "e_commerce",
        "visible": true,
        "value": [
          "read",
          "create",
          "edit",
          "update",
          "delete"
        ]
      },
      {
        "url": "/main/information",
        "iconWeb": "",
        "mobile": "",
        "android": "",
        "ios": "",
        "ionic": "",
        "name": "information",
        "lang_property": "information",
        "acl": "information",
        "visible": true,
        "value": [
          "read",
          "create",
          "edit",
          "update",
          "delete"
        ]
      },
      {
        "url": "/main/applications",
        "iconWeb": "",
        "mobile": "",
        "android": "",
        "ios": "",
        "ionic": "",
        "name": "applications",
        "lang_property": "applications",
        "acl": "applications",
        "visible": true,
        "value": [
          "read",
          "create",
          "edit",
          "update",
          "delete"
        ]
      },
      {
        "url": "/main/medical",
        "iconWeb": "",
        "mobile": "",
        "android": "",
        "ios": "",
        "ionic": "",
        "name": "medical",
        "lang_property": "medical",
        "acl": "medical",
        "visible": true,
        "value": [
          "read",
          "create",
          "edit",
          "update",
          "delete"
        ]
      }
    ]
  },
  {
    "rol": "user",
    "module": [
      {
        "url": "/main/api",
        "iconWeb": "",
        "mobile": "",
        "android": "",
        "ios": "",
        "ionic": "",
        "name": "api",
        "lang_property": "api",
        "acl": "api",
        "visible": true,
        "value": [
          "read",
          "create",
          "edit",
          "update",
          "delete"
        ]
      },
      {
        "url": "/main/term",
        "iconWeb": "",
        "mobile": "",
        "android": "",
        "ios": "",
        "ionic": "",
        "name": "term",
        "lang_property": "term",
        "acl": "term",
        "visible": true,
        "value": [
          "read",
          "create",
          "edit",
          "update",
          "delete"
        ]
      },
      {
        "url": "/main/users",
        "iconWeb": "",
        "mobile": "",
        "android": "",
        "ios": "",
        "ionic": "",
        "name": "users",
        "lang_property": "users",
        "acl": "users",
        "visible": true,
        "value": [
          "read",
          "create",
          "edit",
          "update",
          "delete"
        ]
      },
      {
        "url": "/main/Access",
        "iconWeb": "",
        "mobile": "",
        "android": "",
        "ios": "",
        "ionic": "",
        "name": "access",
        "lang_property": "access",
        "acl": "access",
        "visible": true,
        "value": [
          "read",
          "create",
          "edit",
          "update",
          "delete"
        ]
      },
      {
        "url": "/main/programs",
        "iconWeb": "",
        "mobile": "",
        "android": "",
        "ios": "",
        "ionic": "",
        "name": "programs",
        "lang_property": "programs",
        "acl": "programs",
        "visible": true,
        "value": [
          "read",
          "create",
          "edit",
          "update",
          "delete"
        ]
      },
      {
        "url": "/main/geographics",
        "iconWeb": "",
        "mobile": "",
        "android": "",
        "ios": "",
        "ionic": "",
        "name": "geographics",
        "lang_property": "geographics",
        "acl": "geographics",
        "visible": true,
        "value": [
          "read",
          "create",
          "edit",
          "update",
          "delete"
        ]
      },
      {
        "url": "/main/finances",
        "iconWeb": "",
        "mobile": "",
        "android": "",
        "ios": "",
        "ionic": "",
        "name": "finances",
        "lang_property": "finances",
        "acl": "finances",
        "visible": true,
        "value": [
          "read",
          "create",
          "edit",
          "update",
          "delete"
        ]
      },
      {
        "url": "/main/tradings",
        "iconWeb": "",
        "mobile": "",
        "android": "",
        "ios": "",
        "ionic": "",
        "name": "tradings",
        "lang_property": "tradings",
        "acl": "tradings",
        "visible": true,
        "value": [
          "read",
          "create",
          "edit",
          "update",
          "delete"
        ]
      },
      {
        "url": "/main/human-resources",
        "iconWeb": "",
        "mobile": "",
        "android": "",
        "ios": "",
        "ionic": "",
        "name": "Human Resources",
        "lang_property": "human_resources",
        "acl": "human_resources",
        "visible": true,
        "value": [
          "read",
          "create",
          "edit",
          "update",
          "delete"
        ]
      },
      {
        "url": "/main/trouble-ticket-system",
        "iconWeb": "",
        "mobile": "",
        "android": "",
        "ios": "",
        "ionic": "",
        "name": "Trouble Ticket System",
        "lang_property": "trouble_ticket_system",
        "acl": "trouble_ticket_system",
        "visible": true,
        "value": [
          "read",
          "create",
          "edit",
          "update",
          "delete"
        ]
      },
      {
        "url": "/main/e-commerce",
        "iconWeb": "",
        "mobile": "",
        "android": "",
        "ios": "",
        "ionic": "",
        "name": "E-Commerce",
        "lang_property": "e_commerce",
        "acl": "e_commerce",
        "visible": true,
        "value": [
          "read",
          "create",
          "edit",
          "update",
          "delete"
        ]
      },
      {
        "url": "/main/information",
        "iconWeb": "",
        "mobile": "",
        "android": "",
        "ios": "",
        "ionic": "",
        "name": "information",
        "lang_property": "information",
        "acl": "information",
        "visible": true,
        "value": [
          "read",
          "create",
          "edit",
          "update",
          "delete"
        ]
      },
      {
        "url": "/main/applications",
        "iconWeb": "",
        "mobile": "",
        "android": "",
        "ios": "",
        "ionic": "",
        "name": "applications",
        "lang_property": "applications",
        "acl": "applications",
        "visible": true,
        "value": [
          "read",
          "create",
          "edit",
          "update",
          "delete"
        ]
      },
      {
        "url": "/main/medical",
        "iconWeb": "",
        "mobile": "",
        "android": "",
        "ios": "",
        "ionic": "",
        "name": "medical",
        "lang_property": "medical",
        "acl": "medical",
        "visible": true,
        "value": [
          "read",
          "create",
          "edit",
          "update",
          "delete"
        ]
      }
    ]
  }
]
